MW spectrum analysis
…
miss_var_summary(df_merged_raw)

# A tibble: 388 × 3
   variable          n_miss pct_miss
   <chr>              <int>    <num>
 1 BDI_19_weightloss    535     75.5
 2 BDI_1_numeric        535     75.5
 3 BDI_2_numeric        535     75.5
 4 BDI_3_numeric        535     75.5
 5 BDI_4_numeric        535     75.5
 6 BDI_5_numeric        535     75.5
 7 BDI_6_numeric        535     75.5
 8 BDI_7_numeric        535     75.5
 9 BDI_8_numeric        535     75.5
10 BDI_9_numeric        535     75.5
# ℹ 378 more rows
…
There seem to be quite a few observations/participants, where majority of questionnaires were not answered. Since this would be impossible to impute, I suggest this rows/observations are deleted from the dataset.

df_merged_clean <- df_merged_clean %>%
  filter(!is.na(MSSB_1) & !is.na(OCI_R_1) & !is.na(AQ_1) & !is.na(EAT_1) & !is.na(HCL32_1))

df_merged_clean

# A tibble: 451 × 388
    ...1   X.1 Participant.Public.ID nightmare_1 nightmare_2 mwq_1 mwq_2 mwq_3
   <dbl> <dbl> <chr>                       <dbl>       <dbl> <dbl> <dbl> <dbl>
 1   175   175 vs7415pm                        0           2     4     6     4
 2   176   176 jrf01pal                        7           7     5     2     4
 3   177   177 mtu8p5sa                        1           0     3     3     3
 4   178   178 9eprutwa                        3           2     4     5     4
 5   179   179 usnnjdm9                        2           3     4     3     3
 6   180   180 17ox37sw                        4           2     5     2     3
 7   181   181 99rxav54                        2           1     4     2     5
 8   182   182 1lb7tbr7                        3           2     5     5     4
 9   183   183 h6f38bwq                        4           4     6     5     4
10   184   184 ellwx9rd                        5           1     4     6     7
# ℹ 441 more rows
# ℹ 380 more variables: mwq_4 <dbl>, mwq_5 <dbl>, MSSB_1 <dbl>, MSSB_2 <dbl>,
#   MSSB_3 <dbl>, MSSB_4 <dbl>, MSSB_5 <dbl>, MSSB_6 <dbl>, MSSB_7 <dbl>,
#   MSSB_8 <dbl>, MSSB_9 <dbl>, MSSB_10 <dbl>, MSSB_11 <dbl>, MSSB_12 <dbl>,
#   MSSB_13 <dbl>, MSSB_14 <dbl>, MSSB_15 <dbl>, MSSB_16 <dbl>, MSSB_17 <dbl>,
#   MSSB_18 <dbl>, MSSB_19 <dbl>, MSSB_20 <dbl>, MSSB_21 <dbl>, MSSB_22 <dbl>,
#   MSSB_23 <dbl>, MSSB_24 <dbl>, MSSB_25 <dbl>, MSSB_26 <dbl>, …
…
augment(reg_model) %>% 
  mutate(row_n = seq((1:nrow(df_merged_analysis_clean_std)))) %>% 
  relocate(row_n, 1) %>%
  arrange(desc(.fitted))

# A tibble: 450 × 16
   row_n mwq_total_score MSSB_total OCI_R_total_score AQ_total_score
   <int>           <dbl>      <dbl>             <dbl>          <dbl>
 1   130          -0.609     -0.105           -0.265         -0.383 
 2   123           1.84       1.66             1.19           0.475 
 3   357           1.19      -0.399            0.960         -0.726 
 4   182           0.862      0.484            2.03          -0.726 
 5   207           0.372      0.484            1.11          -0.211 
 6   144           2.01       0.925            0.577          0.646 
 7   241           1.35       0.925            0.577         -0.0396
 8    86           2.17       2.25             1.11          -0.383 
 9   361           0.699     -0.399            0.0415         0.646 
10   385          -0.118      1.81             1.34           0.989 
# ℹ 440 more rows
# ℹ 11 more variables: ASRS_total_score <dbl>, BDI_shorten_total_score <dbl>,
#   EAT_total_score <dbl>, HCL32_total_score <dbl>, STAI_state_sum <dbl>,
#   .fitted <dbl>, .resid <dbl>, .hat <dbl>, .sigma <dbl>, .cooksd <dbl>,
#   .std.resid <dbl>
…
Now there seem to be some points with negative fitted values that affect homoscedasticity, however not severly. Still, let’s see which points are they (perhaps 116 from the previous dataset, which would now be 115).

augment(reg_model_removed_influentials) %>% 
  mutate(row_n = seq((1:nrow(df_merged_analysis_clean_std_rem_infl)))) %>% 
  relocate(row_n, 1) %>%
  arrange(.fitted)

# A tibble: 448 × 16
   row_n mwq_total_score MSSB_total OCI_R_total_score AQ_total_score
   <int>           <dbl>      <dbl>             <dbl>          <dbl>
 1   297          -1.59       0.337            -1.34          0.818 
 2   394          -2.24      -0.987            -0.724        -0.726 
 3   446          -1.43      -0.840            -0.953        -1.58  
 4   418          -1.10      -0.987            -1.57         -0.726 
 5   253          -0.609      0.190            -1.03         -0.726 
 6   254          -1.92      -0.693            -0.800         0.132 
 7   437          -1.26      -1.13             -1.03         -0.0396
 8   272          -1.59      -0.840            -1.26          0.132 
 9   255          -1.10      -1.28             -0.724        -1.41  
10   131          -1.26      -1.13             -1.57         -1.24  
# ℹ 438 more rows
# ℹ 11 more variables: ASRS_total_score <dbl>, BDI_shorten_total_score <dbl>,
#   EAT_total_score <dbl>, HCL32_total_score <dbl>, STAI_state_sum <dbl>,
#   .fitted <dbl>, .resid <dbl>, .hat <dbl>, .sigma <dbl>, .cooksd <dbl>,
#   .std.resid <dbl>
…
Let’s compare summaries of the two datasets (full and reduced):

bind_rows(
  full_df = summarise_data(df_merged_analysis),
  reduced_df = summarise_data(df_merged_exc_analysis),
  .id = "dataset"
) %>%
  tidyr::pivot_longer(-dataset) %>% 
  tidyr::pivot_wider(names_from = dataset, values_from = value)

# A tibble: 45 × 3
   name                     full_df reduced_df
   <chr>                      <dbl>      <dbl>
 1 mwq_total_score_mean       19.7       19.9 
 2 mwq_total_score_median     20         20   
 3 mwq_total_score_sd          6.13       5.75
 4 MSSB_total_mean             8.71       8.30
 5 MSSB_total_median           7          6   
 6 MSSB_total_sd               6.79       6.63
 7 OCI_R_total_score_mean     20.5       20.4 
 8 OCI_R_total_score_median   19         18.5 
 9 OCI_R_total_score_sd       13.1       12.8 
10 AQ_total_score_mean        19.2       18.9 
# ℹ 35 more rows
…
augment(reg_model_exc) %>% 
  mutate(row_n = seq((1:nrow(df_merged_exc_analysis_clean_std)))) %>% 
  relocate(row_n, 1) %>%
  arrange(desc(.fitted))

# A tibble: 377 × 16
   row_n mwq_total_score MSSB_total OCI_R_total_score AQ_total_score
   <int>           <dbl>      <dbl>             <dbl>          <dbl>
 1   318         -0.158       1.91              1.37           1.07 
 2   163          0.366       0.556             1.14          -0.150
 3   291          1.24       -0.347             0.981         -0.674
 4    69          2.28        2.36              1.14          -0.325
 5   130          1.59        2.21              2.15           0.373
 6   129          1.41        1.91              0.981          1.07 
 7   374          1.76        0.105             1.61          -0.150
 8    87          0.714       0.255            -0.191         -0.150
 9   119          1.59        1.46              0.903          1.94 
10   186          0.0167      2.97              1.29           0.199
# ℹ 367 more rows
# ℹ 11 more variables: ASRS_total_score <dbl>, BDI_shorten_total_score <dbl>,
#   EAT_total_score <dbl>, HCL32_total_score <dbl>, STAI_state_sum <dbl>,
#   .fitted <dbl>, .resid <dbl>, .hat <dbl>, .sigma <dbl>, .cooksd <dbl>,
#   .std.resid <dbl>
…
